_id,Librerie100KAbit,Cinema100kAbit,Ristoranti&Bar100kAbit,Spettacoli1kAbit,IndiceSportivita,SpesaTuristiPerDestinazione(mln),Onlus100kAbit,NumIngressiSpettacolo,SpesaAlBotteghinoSpettacoli,CostoMedioIngressiSpettacoli,VolumeAffariTotaleSpettacoli,SpesaAlBotteghinoCultura,VolumeMedioAffariPerSpettacoloCultura,PermanenzaMediaStruttureRicettive
Agrigento,407.433229020875,214.795473652243,413.65942096118,286.53673221014,179.373503719104,13.2362480731292,478.35873633731,151.945317687305,10.5180819262256,321.448003924376,8.70463580925784,47.3349389328423,16.7670356909979,459.921156373193
Alessandria,434.558625913506,678.519577912646,525.969395152795,579.616723634958,445.445936594705,17.5444506218117,559.595653421306,180.741139090166,27.1380062644187,356.143866749155,21.0908321051118,126.190556320978,20.7511628423061,306.176084099869
Ancona,572.85383541042,575.644451156485,479.51715388281,675.675055076765,582.215730381469,11.4084187719904,211.608821862594,217.762737339634,48.5873580512105,407.469265535676,40.0583737338781,202.777503519418,30.3453835107261,555.847568988173
Arezzo,452.839132036557,548.48057460741,540.312266097413,576.45206097881,445.505770605477,11.8316317887096,547.286194647707,213.948462706597,26.5819390732896,365.966669819117,24.1860059043789,152.657224922286,29.5510133714456,275.952693823916
Ascoli Piceno,525.226053795595,1000,674.645344637332,950.864744724723,640.315923539352,4.51936619538741,138.775759073927,157.573428685142,19.9883627229544,373.349186045097,16.8323453023564,189.199681904464,20.5499032505324,670.170827858081
Asti,480.279986964677,462.664541427824,516.912603223297,430.588027882097,251.715757801739,6.87548198883693,519.056511138493,194.954033205457,11.639818875009,374.559735713549,8.04782037458005,106.345404469167,20.9425491819157,257.555847568988
Avellino,409.960882742983,400.575351699149,477.999185771778,374.758174684,288.56925069627,2.93733718023736,257.260662661477,143.594908210163,14.1686555397267,364.25599555614,22.0659812500041,66.2979846686044,33.789715073321,240.473061760841
Bari,412.258909225628,465.632293781358,412.191059550761,540.72372815116,348.454348727207,34.4347787158054,385.179622461809,257.878404494213,106.195322711062,353.17469949494,62.2908544145375,166.56488500743,22.1598917985953,282.522996057819
Barletta-Andria-Trani,368.092493423355,445.542160713338,427.647490957642,390.91490079943,211.576618212396,3.20602235938616,286.424135151786,163.892187306337,13.7782622223513,320.566384320377,25.4693970253086,69.4643406746779,40.2851166464858,277.266754270696
Belluno,421.688485057273,263.428042953757,609.224924217939,368.945422712859,503.825562509106,21.2638698671799,364.58759020863,188.296907538973,9.16158628258427,375.329674405524,13.2686523448786,88.1904744286421,42.4576943650172,565.045992115637
Benevento,495.281190788338,570.984326381218,518.651027769534,429.975150283029,331.426275835946,2.88337832851409,259.001067153551,223.442296431378,25.6876354775819,558.602708650652,24.734652749728,181.516138122589,49.8533433625745,287.779237844941
Bergamo,378.475316735667,334.217237420261,470.382312261973,462.541554791205,617.962482893847,32.4367046002446,483.681269096394,407.843456471378,143.632694879144,399.641713555695,146.660782864582,254.987287946193,69.0349761173529,253.613666228647
Biella,422.910204478929,699.213200322928,552.635228486463,300.083267003017,481.30244778952,9.0512981648762,578.406876499328,300.868088348276,9.86062853363237,359.698446313379,8.56027321602649,109.839849849651,38.9710308647744,379.763469119579
Bologna,449.980185490335,638.529377959413,555.298409732907,539.003730789984,656.339340094715,85.185765850269,232.332850121231,430.712089693592,243.77569941985,605.515039024075,147.915362581054,475.452603819663,65.6415829093236,272.010512483574
Bolzano/Bozen,207.380444171984,207.877525735634,514.022293472242,472.009792823776,564.892915755237,137.882061403706,157.533528189625,254.471163675007,54.1507810964906,498.168654027149,45.5716237811987,202.38086357684,44.253632874023,528.252299605782
Brescia,232.709945009593,330.15307402014,552.152451809519,459.754452222149,586.751281789788,121.359903214145,437.139403284204,275.553404013653,113.18635053369,412.718710415702,112.993653152461,176.843598897679,47.0938405102972,324.572930354796
Brindisi,350.011147335608,377.583852693146,509.276581138088,302.757653084596,326.586923753596,12.5014913864046,256.247495980568,236.333892654768,18.7072556129363,386.017180096377,11.4833290812536,93.4181440405117,23.2292158825312,530.880420499343
Cagliari,773.44944019904,477.604005749987,545.005853894081,700.390839114601,828.793681099725,55.4323935703814,624.829698895592,240.4453804621,54.9956369016002,440.881965775198,34.5136402207898,251.120803193757,27.5959583902323,370.565045992116
Caltanissetta,302.685936043843,326.400805648142,412.876195369611,279.862502922208,127.418252654426,1.19930084014608,628.620756099565,170.793236869892,6.74380175170592,308.816627284763,4.77853482181078,49.9251664471534,15.5026336074676,532.194480946123
Campobasso,490.222119055097,322.215933214754,568.140943793886,287.482581392374,240.153150284926,1.12833025576015,626.047089520464,126.345837455683,4.94874119527412,355.884134231602,3.50965026463032,43.7204440205415,13.2276544874302,478.318002628121
Caserta,343.078969319807,363.454116111188,500.070835998215,375.861399785488,194.98241983504,7.40373272423494,247.910383862604,187.083319215348,34.958446352097,313.955282149253,17.8491099511153,74.6679194462174,12.4397450639244,369.250985545335
Catania,435.955912032672,497.015206133155,361.265834023579,473.984444455225,262.747549265447,45.3111537500449,487.437947210962,271.812548303822,102.294400749813,417.184932061479,39.5081466704661,181.788190996526,18.1667436901285,268.068331143233
Catanzaro,510.855656618994,287.249382284538,480.628461538104,284.980694767843,241.6867482132,5.66713291652112,440.790137870957,212.851120808096,15.5991467417961,415.627951523212,8.06353888775046,85.2706535701274,18.96923020703,559.789750328515
Chieti,371.994775901681,612.440210415299,563.545158943057,481.86600460882,310.166445761458,3.39606313590933,532.234046247682,179.098362147804,23.0148661278322,401.7301622283,14.1062165872564,117.261597162198,18.2924689617718,421.813403416557
Como,269.125884596732,240.334632375805,478.095280156992,481.445619649542,452.878294329854,133.553058825062,418.186957284259,192.33402982038,36.9766712775944,388.569705160697,32.8680127175636,121.695850808235,27.5559178008382,293.035479632063
Cosenza,438.907035845316,319.323683911425,561.517510363558,187.854727687494,200.495714614594,5.59398444981094,287.326178874934,231.724098040515,22.0980046086597,417.720289508065,10.4723388948866,61.5010262378786,19.0279313812772,621.550591327201
Cremona,369.544361793452,427.289345768593,469.705573144227,518.856189232599,626.168577938703,8.16436222571033,386.497148873095,271.176131213441,32.0118512589951,370.08214273013,36.3699474217429,176.116503526459,47.2961348991308,228.646517739816
Crotone,263.234630483425,156.533524542104,473.304070215222,48.8059763547378,258.015045947285,5.07700755070998,213.365618937822,1000,14.6511903756311,1000,35.3206537894748,165.073161054596,1000,862.023653088042
Cuneo,391.482567143301,428.790331827364,479.988589661498,515.197939520511,394.579940642193,28.4322448601114,587.548933924013,223.537581305247,45.7765217386216,393.838001382514,37.8683938889936,153.40720114807,30.2097018801128,348.226018396846
Enna,381.109664828406,284.550656650196,383.471281974044,202.204281789366,119.538207500285,2.25256758551735,427.58159071196,135.419073663797,2.78579284624794,356.847753394884,1.64071306126145,33.0488700969769,11.8056743644444,248.357424441524
Fermo,330.40786896043,374.017942790594,521.400005377572,841.102427113095,614.610685984142,1.96038623052685,124.403499302566,174.082434686257,15.1323745962949,345.701038710951,13.6009811748522,171.201665513316,22.4369060879659,1000
Ferrara,381.831798358078,625.92884781852,604.11897034259,676.266921800493,547.932750027861,11.9847027536611,128.485964994628,252.759578683006,46.7918504231746,460.082554706762,36.884554736866,265.989808560031,38.0243581279406,597.897503285151
Firenze,534.379016592919,636.532963292534,543.884050446448,728.010052457174,737.144672691841,402.833587192104,838.340349701547,339.516040698303,260.376568190449,606.279417708035,236.069728486101,506.84359343598,77.4133215764928,348.226018396846
Foggia,451.380146180437,369.356803278204,432.484761806892,312.327262507986,228.74118163437,14.22693718066,308.301803407134,197.707322479496,27.0161476419169,408.022583923458,18.6614172971004,85.2158369431941,23.1138525009822,638.633377135348
Forlì-Cesena,540.684688959872,789.056545631319,593.189008430811,774.196685713823,489.415975960923,12.2685797822281,143.664648619065,273.481627524701,49.0230787831795,342.539392916106,33.9978148858385,245.297685211905,26.9484182670879,600.525624178712
Frosinone,363.955481669261,375.296105081388,545.225802997187,335.502972869355,303.741643854674,11.242285728366,336.447145361411,189.932888193055,18.6437014932048,347.751669688796,19.4892365589882,74.9495848611952,28.6402141029779,272.010512483574
Genova,497.657660128754,513.348260218413,724.300799638268,576.613235349745,679.031261076611,88.8205613397392,373.610294336453,305.507045431987,120.597731912201,472.485182805248,118.457003396922,281.512376546886,58.8132533057126,333.77135348226
Gorizia,537.0336934177,392.816426756913,582.200896854206,1000,512.76513603995,47.0006606644739,276.514474415792,126.43303228015,9.29408575471998,307.433621141686,9.05075895546219,131.466583567919,15.7012567554926,482.260183968463
Grosseto,570.38741320766,375.474207665945,814.501549613068,714.931556334587,289.451123563834,21.2226565376256,455.550206908595,184.665005742966,17.8900494848872,355.677817882129,17.9969011931842,158.821507620565,27.4076470543183,596.58344283837
Imperia,591.333956414511,572.655567857435,901.097901993002,633.611077679693,406.090311806788,107.687811267501,348.587280902211,124.146874550433,14.0611710134967,486.429754969781,11.5906408236923,129.414264268914,20.6483835539451,525.624178712221
Isernia,270.317571283943,149.70470182339,604.477739941821,123.542268369461,347.236777546685,1.14848351273054,607.844443037038,135.490068063967,0.993276701423819,405.983664428086,2.04556540907597,22.9844996498506,46.9897701093457,312.746386333771
L'Aquila,556.076738227814,527.675451865258,703.909768219007,522.459105576897,217.417889701189,4.34669678547393,878.396415095997,141.906125732336,12.2674899699183,321.207777995808,7.98492039654116,80.5458115464556,12.3068314715942,321.944809461235
La Spezia,602.458690800714,721.114726275312,749.748219409607,610.535481471192,539.944862971888,42.5976273812626,339.704137774026,192.475053707815,15.516378088586,350.14787158557,11.7618185281884,139.168296457192,21.1911360097563,379.763469119579
Latina,520.406070266676,583.174427055754,636.516108124933,503.275274041638,339.531542555785,9.77771399660042,420.770008911209,141.558760313105,22.8860702213522,325.472986372497,19.5589571193188,78.4261248042269,16.3331648581721,519.053876478318
Lecce,425.409245625572,564.472271578699,498.335993180075,315.072457920522,266.724157476833,21.680855379729,155.34663384932,246.466022446631,42.3513157921039,398.108435976843,20.1916529556669,104.561628946496,19.4047289128092,634.691195795007
Lecco,237.617877926929,265.822443786667,418.172428173067,162.355283226322,649.124597836053,10.3964075158487,656.799049218747,344.091521930968,11.9877228367282,368.718076932315,10.8195095850138,69.6687936405704,47.498890214176,289.093298291721
Livorno,376.919005783239,867.891028324677,765.486399030921,553.528556053447,802.152672666962,30.5023088729539,433.631113793043,367.24830118566,48.8565059209352,416.864575814775,24.8752149752755,286.614580757694,32.332806489557,725.361366622865
Lodi,200.561955245833,340.023173788059,402.548814954557,318.330427829814,351.748713248276,2.24712450543477,230.738972307956,235.722034555832,7.54175095730797,255.093550376281,5.10874680486588,64.7412789939185,16.8960827934849,211.563731931669
Lucca,591.866292234152,610.657401814656,733.422303666036,443.194708629727,519.676300037293,52.0020173452033,442.597913947255,418.892766105411,92.5464570361372,746.746237128808,48.9220156016262,468.893198047956,68.5906037561868,433.639947437582
Macerata,564.535442706057,667.044601284217,524.427697416595,635.180012904871,695.950430101024,2.8679217610212,175.225400191952,244.33916153321,40.3232483860638,479.007357786219,32.9967620044493,251.440684394164,39.7278675888986,726.675427069645
Mantova,377.711267816903,454.696331128423,477.529468827979,492.810280896787,320.617584702378,14.0284806156724,307.252330290061,227.286238780609,33.8077998077375,427.471574383722,28.7877194310909,161.943531095341,34.3174424116385,241.787122207622
Massa-Carrara,1000,273.484642055726,761.433528764045,417.256287279863,389.697809956163,6.76606859486487,467.567573847204,303.430731555668,14.9232439351525,350.969134438118,11.5366332513226,150.291645996513,34.1498275693942,590.013140604468
Matera,202.757888142208,428.464427189459,463.407774402667,425.153967761077,325.396349510945,3.55695178247582,236.294729977271,160.777017332319,8.43001927494951,361.647227410135,10.5615636482905,83.6101122754584,30.2171108784406,487.516425755585
Messina,474.473607043725,332.250495114743,484.652431510824,409.955421025391,372.900336341592,43.7200353380851,526.777852592835,188.081090741503,41.9177456112048,502.194465701731,23.5429365725793,130.965574821844,22.0051305639968,388.961892247043
Milano,468.349240521582,524.305865071418,553.023445726601,648.911445852846,609.266324892343,512.047435975691,573.274205758576,433.98986675234,1000,640.171160215044,1000,609.767947245489,115.244410896938,262.81208935611
Modena,574.470476269654,490.674754201412,509.430562111601,377.792193288492,599.415780800961,21.5207004850254,132.181327364154,373.859122921596,100.156936265588,589.164811508494,119.417393502843,281.449981922736,108.937026598732,307.490144546649
Monza e della Brianza,290.756256247948,547.590911623175,374.539571106372,491.179643812998,490.011063501456,16.7262107707966,326.210626571036,305.519516288255,146.451840735147,652.88842042707,76.7475120544911,331.376530318186,43.360229545317,244.415243101183
Napoli,462.529824800083,331.930139363251,481.598591881733,322.2869912057,255.364284598412,239.731176519478,355.137309684803,307.418231930746,283.111051747174,537.368096635742,156.397967747695,180.072642643705,37.8547131384208,408.672798948752
Novara,280.536167171857,372.182775295316,480.101674882905,503.021230326702,472.129793368885,13.080956757724,423.808259188121,325.337285655989,42.353552136589,408.350505083422,33.8786068790449,226.025122785517,44.0805309857707,314.060446780552
Nuoro,382.201471061592,215.470166979844,677.293417857158,286.925854166893,167.626205511103,7.2791352410065,257.542324662529,136.99437019863,4.39598736498517,309.782925948531,3.83956934648213,41.1844569114471,15.3755427664999,689.88173455979
Oristano,325.606290450459,525.14406526411,579.333319857741,431.435594708478,205.683084699583,5.16189232016171,287.570003926695,126.366762068348,4.63558275428711,311.424547721452,2.00110836074235,57.4255463082464,7.04686814940547,357.42444152431
Padova,362.806774181799,368.035482327925,459.792508464216,429.878838410856,623.522685514589,56.2345044406629,542.807120932131,300.904987948937,89.6447848200615,431.439603892427,50.1991341775788,188.755199992842,30.1553775776639,385.019710906702
Palermo,402.242588331825,365.285870156975,337.72250503797,358.143437793069,216.493020429099,91.2649039031266,705.620922920412,279.201452724196,73.7303060493563,341.211610494615,85.6153739861409,115.398970653912,45.8871804798895,315.374507227332
Parma,537.319031055797,486.744253981237,520.806915355035,504.221689783667,633.210518315742,24.5374431906074,171.266576339077,321.491334076039,48.2876876581002,385.811887044556,47.0556058927442,211.528973248027,50.1376545579513,346.911957950066
Pavia,284.947412210886,285.981100208791,514.358939400365,487.450143628627,342.049710500222,12.6743625970234,410.604407580009,210.249247608032,36.0147590761899,375.460168875998,21.1314282607123,130.146348250993,19.2128077503843,256.241787122208
Perugia,656.778728858894,447.437551229233,538.879611016077,596.514391375629,506.131905375214,21.9521902624002,404.817984941724,246.544053013366,65.4965342646146,394.827810615073,48.8807875052715,196.393294423183,30.1346615838856,323.258869908016
Pesaro e Urbino,511.845805173857,646.744407953539,593.924028690949,582.569777754327,499.009118770758,8.93751140945092,153.906411203656,230.85052898668,35.9522300093348,432.895664171908,24.6008671896005,196.908980450217,28.3650054052404,675.427069645204
Pescara,468.918313627754,799.151797611616,640.298577739819,850.267516118918,511.487487685275,11.6348434560214,705.464497358806,184.829939304708,32.033348645868,372.173405070795,28.548485564434,197.822965044701,25.4297779972134,349.540078843627
Piacenza,421.804648228193,797.465329374654,606.179267881891,572.231440343471,555.810103157626,10.937863377161,117.641297970597,230.871060523214,25.0949814713335,386.264494448212,19.9799984856649,172.595498986285,29.4514740902146,261.49802890933
Pisa,588.68735586032,428.452541588209,573.45540614672,641.693559788576,549.177002238488,41.5318389292994,521.191530822163,258.88996846551,47.4447606525991,395.829963590406,32.7811098948126,222.410369848329,29.3699671244755,463.863337713535
Pistoia,434.153123516272,353.335372936843,593.843012924605,412.872778625806,629.35509812001,16.070614575518,462.325641995062,237.602924612354,22.940357085515,467.196357359044,13.0670817809956,155.014007051166,26.2285234929718,293.035479632063
Pordenone,350.695428773919,324.44761816219,466.301952284667,434.162752049712,530.84083350333,7.02342857360549,200.765718475562,271.183652812708,23.5374248539746,373.56522395457,17.4765797698358,148.759931751402,31.2012232642607,333.77135348226
Potenza,563.120071396316,392.166204321325,448.865785638112,241.086352035531,168.174577508964,0.732178359356402,330.468135321121,198.187706168423,10.0750564231644,333.920985929693,10.462024402814,53.9630531436256,28.5057744571276,358.738501971091
Prato,269.937542597905,636.596296634787,457.710283146318,716.223175331129,362.825420961116,6.45408622597139,498.766893580631,204.829971575117,20.7193745250459,321.635418719692,11.814795522853,159.591297126435,15.5830017314632,324.572930354796
Ragusa,573.570870299765,384.852288467768,472.634939761252,359.083708461985,304.333845032666,15.2865248825193,472.408130285576,153.062988962393,10.6595790589307,351.931652863773,5.78670348140651,65.4225824877105,12.1300857469418,406.04467805519
Ravenna,397.416977497665,639.902007206966,607.12733902863,652.766139605446,605.442325562706,21.4804767218421,70.8141746217742,484.648425337814,111.561117737802,525.482359648422,70.5715850005749,562.271445328365,66.8261036387721,546.64914586071
Reggio di Calabria,470.258107161502,198.797849847768,441.530618476033,173.158068048893,230.830669005742,5.85080139597607,281.983175934929,172.084446921599,12.000952691977,426.090848516195,6.95317241297033,42.9427666764788,17.622003345958,371.879106438896
Reggio nell'Emilia,335.292129526082,537.77725518076,494.106438397283,523.717439603106,505.37827740614,8.99058349886813,180.992826353394,315.40231286094,66.478835066571,440.686973722052,49.0597254601314,246.204272824136,42.5481790178354,274.638633377135
Rieti,294.352860016728,230.667210446085,575.277844371708,293.691277750837,470.872015279411,0.940868273183436,561.837654910335,135.028923551831,4.42339791139733,415.492782862424,2.33168316046509,55.729455694088,12.2672720124783,277.266754270696
Rimini,802.586351964635,544.252464218025,775.385583929191,897.839911310279,721.89065560875,71.7740790303375,135.733553354185,498.043921027775,149.624837571359,578.466363639795,107.377760815736,874.879265972477,85.7631222808977,558.475689881735
Roma,648.004570050302,558.389743813209,626.898508521856,726.78669511018,525.856732590438,1000,1000,288.433858817688,944.058575474874,602.940947338928,411.778663876514,427.495404181818,31.465170938898,386.333771353482
Rovigo,414.232233502538,428.854553607232,592.900506491624,393.82368739206,266.599866137134,6.33702312689274,244.650392119693,219.700044116824,11.1945441453943,319.165882847187,8.39176351233968,93.4010809314456,21.8040719497514,597.897503285151
Salerno,355.519290446312,335.379472966819,633.493704733197,314.979636996412,277.60809731865,69.2362356423677,311.679922668491,230.147453820919,60.1945743259626,439.511264085627,43.6245449878797,107.761127144791,30.4084248811702,634.691195795007
Sassari,278.512175086352,206.179380093028,909.140222349245,170.836728981316,395.461446978415,15.4895048985085,281.266854707457,376.165245423468,28.5163891225708,525.282195954879,28.6034177102312,114.171066742279,82.212702127619,638.633377135348
Savona,725.709170677378,405.694731756493,1000,616.714408752743,485.402668665929,64.9113040687796,281.914642299833,190.891046542272,27.2942765763932,486.680065554307,17.7587704073502,193.783446087813,25.073479094874,587.385019710907
Siena,709.25986080414,821.299762306536,613.624446614954,732.314604801689,586.580639380177,56.276903563338,561.967455127368,182.369851369798,22.6010879974654,368.228252062042,18.1262779534603,166.330276216575,22.3405374790018,295.663600525624
Siracusa,402.332392317685,314.409139329903,478.369709472426,223.651959685926,285.824049967565,26.1084832220134,495.930275808196,281.724165280024,23.2562787591907,536.929717069764,12.3981527272181,114.424154646814,33.4504894860011,379.763469119579
Sondrio,508.063457021756,341.338028287165,566.212375996777,475.834254636278,449.919168954409,7.89958463370039,451.665167174111,143.705696767678,8.51588629772283,400.354947621954,8.76672638885557,92.5930415755944,24.5680654580594,392.904073587385
Sud Sardegna,583.042725588495,216.381533549788,511.200585411946,80.0550695449743,138.527698560901,27.6663168366656,279.23596319571,217.549099619452,4.85324584183879,459.283673952568,5.65499072926672,27.0539448228819,48.2927661567177,678.055190538765
Taranto,436.745388413655,331.697441082743,429.490471102339,274.76637759232,160.136101585238,5.13174170539551,336.3569267122,183.159712735751,17.4532849281988,348.502859170849,15.0474740887534,59.3203015512004,22.8279494610189,528.252299605782
Teramo,616.602662785346,520.603324502328,653.578034487931,566.255307966383,476.214035469556,8.03832287879263,531.545044964287,158.704936380434,19.7299351132718,415.299538838184,21.7523542208563,126.231468011609,30.142319695257,802.890932982917
Terni,558.622830231831,541.118307011827,518.506277872263,702.494627022868,416.149376467112,3.7820658024327,265.5679823123,165.805438535529,15.3473996161199,338.716287115461,12.7437179411817,133.438552224793,19.3437369904927,272.010512483574
Torino,507.709130048861,460.128228340924,542.704820052994,550.295196648131,643.415186037172,138.85960122211,695.079266048971,374.882639850407,447.149406286259,557.049311565064,391.349454073273,388.676386083257,75.8132689127284,361.366622864652
Trapani,399.650186116658,402.45255005887,467.139817200647,222.81496151947,255.554773354514,17.8657251411456,487.648085116398,275.279208098378,16.7295189994541,367.850640781326,14.2757299993672,76.3119830326104,35.8429689368165,437.582128777924
Trento,341.413508826177,266.600510966762,504.008260578336,361.246703577481,867.838242770602,107.648119485424,330.295112810279,282.315907320655,34.9520526391812,370.178527346755,40.232903434084,127.689130118429,49.8998729308297,522.99605781866
Treviso,240.167895830212,325.940260704421,478.26579940239,453.43286176152,621.300404451735,31.5685720972098,374.741698415968,256.775183813956,69.4639343430156,392.060981993154,64.9540061567053,154.391407513725,39.0478759081894,283.837056504599
Trieste,294.594978096422,475.581620232894,624.131975245783,832.469093286456,1000,54.0848560913376,400.542316814753,213.778601675234,35.6840001320529,498.347555250339,13.1989165678443,299.963315621483,16.345774120005,289.093298291721
Udine,359.077366384736,364.999970045548,655.503624144191,674.267207568123,589.941440235092,58.0074111453802,161.600295183344,227.397568151617,71.9264699319807,516.763748890116,77.1956897347467,267.986771945164,52.3150132461098,483.574244415243
Valle d'Aosta/Vallée d'Aoste,502.075337670607,601.356223223739,793.959399801138,655.612522171403,544.36581484775,57.1687744441828,467.82345666697,212.901840895075,9.98423058742029,330.530246114759,6.76770382319132,156.041934701605,19.7861612063627,366.622864651774
Varese,258.734804784683,371.945132849704,439.24785302958,337.726666191851,539.373571785429,86.5814328092501,316.606939252152,293.221168275349,57.033326806555,377.146387216046,35.2353371494091,126.320573077509,28.3399562606125,229.960578186597
Venezia,445.406337971483,417.807832221503,666.556700923871,591.528180323918,536.353207017923,558.940262988129,383.964498101511,378.339025586055,187.376186801059,572.028056984863,107.374819247889,432.989508689384,51.4435225167928,559.789750328515
Verbano-Cusio-Ossola,398.110768255052,329.31382762981,742.72691901342,368.595744387584,475.427466904324,29.2778232627141,529.930589431098,158.877835236568,7.72823772748845,483.531909005853,6.72827518749208,95.7728105355435,27.7431585344482,342.969776609724
Vercelli,534.88387177606,349.914942152891,561.094795433541,507.07260320188,394.255013630228,2.78863720738089,419.566186349767,330.735727513443,18.2687906522307,368.676213350366,16.1931772241724,209.12205562046,44.8324711484791,383.705650459921
Verona,299.616833472963,251.661925749012,533.817995007753,451.783901084364,592.733457519236,176.923164719435,603.221285286685,736.338968548966,467.869255242798,888.767164732047,289.59532815419,1000,168.02620075287,306.176084099869
Vibo Valentia,537.040882771571,110.044980024625,491.562783236187,90.0587722065624,176.098768650249,5.087532321115,224.671018128552,149.175471935654,1.41893082226811,382.825560081286,2.35458646406884,17.3951361203514,39.3093574744703,722.733245729304
Vicenza,306.963564198716,349.534035154005,461.595699884989,419.933573042281,622.480489783727,24.9297158364427,400.608909367175,289.152323030642,68.6412607343753,381.903838155005,44.4324880774552,156.842865677747,29.6510630278328,339.027595269382
Viterbo,524.968735471122,720.8177890229,567.642768622067,422.299746448411,318.328916564954,3.68415169988754,511.185963327355,171.002812506473,15.0311471866335,381.461359769665,11.6095139304253,93.1704277239667,20.8987299021598,437.582128777924
